\relax 
\providecommand\hyper@newdestlabel[2]{}
\catcode `:\active 
\catcode `;\active 
\catcode `!\active 
\catcode `?\active 
\providecommand\HyperFirstAtBeginDocument{\AtBeginDocument}
\HyperFirstAtBeginDocument{\ifx\hyper@anchor\@undefined
\global\let\oldcontentsline\contentsline
\gdef\contentsline#1#2#3#4{\oldcontentsline{#1}{#2}{#3}}
\global\let\oldnewlabel\newlabel
\gdef\newlabel#1#2{\newlabelxx{#1}#2}
\gdef\newlabelxx#1#2#3#4#5#6{\oldnewlabel{#1}{{#2}{#3}}}
\AtEndDocument{\ifx\hyper@anchor\@undefined
\let\contentsline\oldcontentsline
\let\newlabel\oldnewlabel
\fi}
\fi}
\global\let\hyper@last\relax 
\gdef\HyperFirstAtBeginDocument#1{#1}
\providecommand\HyField@AuxAddToFields[1]{}
\providecommand\HyField@AuxAddToCoFields[2]{}
\select@language{french}
\@writefile{toc}{\select@language{french}}
\@writefile{lof}{\select@language{french}}
\@writefile{lot}{\select@language{french}}
\newlabel{index::doc}{{}{1}{\contentsname \@mkboth {\MakeUppercase \contentsname }{\MakeUppercase \contentsname }}{section*.2}{}}
\@writefile{toc}{\contentsline {chapter}{\numberline {1}\emph  {Simulation des r\IeC {\'e}ponses vibro acoustique de substrat de panneaux solaires destin\IeC {\'e}s \IeC {\`a} l'espace}}{2}{chapter.1}}
\@writefile{lof}{\addvspace {10\p@ }}
\@writefile{lot}{\addvspace {10\p@ }}
\newlabel{index:guide-de-redaction-du-memoire}{{1}{2}{\emph {Simulation des réponses vibro acoustique de substrat de panneaux solaires destinés à l'espace}}{chapter.1}{}}
\newlabel{index:simulation-des-reponses-vibro-acoustique-de-substrat-de-panneaux-solaires-destines-a-l-espace}{{1}{2}{\emph {Simulation des réponses vibro acoustique de substrat de panneaux solaires destinés à l'espace}}{chapter.1}{}}
\@writefile{toc}{\contentsline {section}{\numberline {1.1}R\IeC {\'e}sum\IeC {\'e}}{2}{section.1.1}}
\newlabel{Resume::doc}{{1.1}{2}{Résumé}{section.1.1}{}}
\newlabel{Resume:resume}{{1.1}{2}{Résumé}{section.1.1}{}}
\@writefile{toc}{\contentsline {section}{\numberline {1.2}Introduction}{2}{section.1.2}}
\newlabel{Introduction:introduction}{{1.2}{2}{Introduction}{section.1.2}{}}
\newlabel{Introduction::doc}{{1.2}{2}{Introduction}{section.1.2}{}}
\@writefile{toc}{\contentsline {section}{\numberline {1.3}Revue de la litt\IeC {\'e}rature}{2}{section.1.3}}
\newlabel{Revue_litterature::doc}{{1.3}{2}{Revue de la littérature}{section.1.3}{}}
\newlabel{Revue_litterature:revue-de-la-litterature}{{1.3}{2}{Revue de la littérature}{section.1.3}{}}
\@writefile{toc}{\contentsline {subsection}{\numberline {1.3.1}Mise en situation}{2}{subsection.1.3.1}}
\newlabel{Revue_litterature:mise-en-situation}{{1.3.1}{2}{Mise en situation}{subsection.1.3.1}{}}
\@writefile{toc}{\contentsline {subsection}{\numberline {1.3.2}Influence du son sur les structures}{3}{subsection.1.3.2}}
\newlabel{Revue_litterature:influence-du-son-sur-les-structures}{{1.3.2}{3}{Influence du son sur les structures}{subsection.1.3.2}{}}
\@writefile{toc}{\contentsline {subsection}{\numberline {1.3.3}Application aux panneaux solaires}{3}{subsection.1.3.3}}
\newlabel{Revue_litterature:application-aux-panneaux-solaires}{{1.3.3}{3}{Application aux panneaux solaires}{subsection.1.3.3}{}}
\@writefile{toc}{\contentsline {section}{\numberline {1.4}M\IeC {\'e}thodologie}{3}{section.1.4}}
\newlabel{Methodologie:methodologie}{{1.4}{3}{Méthodologie}{section.1.4}{}}
\newlabel{Methodologie::doc}{{1.4}{3}{Méthodologie}{section.1.4}{}}
\@writefile{toc}{\contentsline {subsection}{\numberline {1.4.1}Description de la probl\IeC {\'e}matique}{3}{subsection.1.4.1}}
\newlabel{Methodologie:description-de-la-problematique}{{1.4.1}{3}{Description de la problématique}{subsection.1.4.1}{}}
\@writefile{toc}{\contentsline {subsection}{\numberline {1.4.2}Objectifs du m\IeC {\'e}moire}{3}{subsection.1.4.2}}
\newlabel{Methodologie:objectifs-du-memoire}{{1.4.2}{3}{Objectifs du mémoire}{subsection.1.4.2}{}}
\@writefile{toc}{\contentsline {subsection}{\numberline {1.4.3}M\IeC {\'e}thode pour parvenir \IeC {\`a} ces fins}{3}{subsection.1.4.3}}
\newlabel{Methodologie:methode-pour-parvenir-a-ces-fins}{{1.4.3}{3}{Méthode pour parvenir à ces fins}{subsection.1.4.3}{}}
\@writefile{toc}{\contentsline {subsubsection}{Outils d'analyses num\IeC {\'e}riques}{3}{subsubsection*.3}}
\newlabel{Methodologie:outils-d-analyses-numeriques}{{1.4.3}{3}{Outils d'analyses numériques}{subsubsection*.3}{}}
\@writefile{toc}{\contentsline {subsection}{\numberline {1.4.4}D\IeC {\'e}marche du projet}{3}{subsection.1.4.4}}
\newlabel{Methodologie:demarche-du-projet}{{1.4.4}{3}{Démarche du projet}{subsection.1.4.4}{}}
\@writefile{toc}{\contentsline {section}{\numberline {1.5}Partie exp\IeC {\'e}rimentale}{3}{section.1.5}}
\newlabel{Partie_experimentale::doc}{{1.5}{3}{Partie expérimentale}{section.1.5}{}}
\newlabel{Partie_experimentale:partie-experimentale}{{1.5}{3}{Partie expérimentale}{section.1.5}{}}
\@writefile{toc}{\contentsline {subsection}{\numberline {1.5.1}Montage exp\IeC {\'e}rimentale}{3}{subsection.1.5.1}}
\newlabel{Partie_experimentale:montage-experimentale}{{1.5.1}{3}{Montage expérimentale}{subsection.1.5.1}{}}
\@writefile{toc}{\contentsline {subsection}{\numberline {1.5.2}Caract\IeC {\'e}risation du montage}{4}{subsection.1.5.2}}
\newlabel{Partie_experimentale:caracterisation-du-montage}{{1.5.2}{4}{Caractérisation du montage}{subsection.1.5.2}{}}
\@writefile{toc}{\contentsline {subsubsection}{Caract\IeC {\'e}risation du joint boulonn\IeC {\'e}}{4}{subsubsection*.4}}
\newlabel{Partie_experimentale:caracterisation-du-joint-boulonne}{{1.5.2}{4}{Caractérisation du joint boulonné}{subsubsection*.4}{}}
\@writefile{toc}{\contentsline {subsection}{\numberline {1.5.3}Acquisition des donn\IeC {\'e}es}{4}{subsection.1.5.3}}
\newlabel{Partie_experimentale:acquisition-des-donnees}{{1.5.3}{4}{Acquisition des données}{subsection.1.5.3}{}}
\@writefile{toc}{\contentsline {subsection}{\numberline {1.5.4}Extraction et traitement des donn\IeC {\'e}es}{4}{subsection.1.5.4}}
\newlabel{Partie_experimentale:extraction-et-traitement-des-donnees}{{1.5.4}{4}{Extraction et traitement des données}{subsection.1.5.4}{}}
\@writefile{toc}{\contentsline {section}{\numberline {1.6}Partie num\IeC {\'e}rique}{4}{section.1.6}}
\newlabel{Partie_numerique::doc}{{1.6}{4}{Partie numérique}{section.1.6}{}}
\newlabel{Partie_numerique:partie-numerique}{{1.6}{4}{Partie numérique}{section.1.6}{}}
\@writefile{toc}{\contentsline {subsection}{\numberline {1.6.1}Mod\IeC {\`e}le dynamique NX-NASTRAN}{4}{subsection.1.6.1}}
\newlabel{Partie_numerique:modele-dynamique-nx-nastran}{{1.6.1}{4}{Modèle dynamique NX-NASTRAN}{subsection.1.6.1}{}}
\@writefile{toc}{\contentsline {subsection}{\numberline {1.6.2}Mod\IeC {\`e}le vibroacoustique VA-one}{4}{subsection.1.6.2}}
\newlabel{Partie_numerique:modele-vibroacoustique-va-one}{{1.6.2}{4}{Modèle vibroacoustique VA-one}{subsection.1.6.2}{}}
\@writefile{toc}{\contentsline {subsection}{\numberline {1.6.3}Mod\IeC {\`e}le vibroacoustique wave-six}{4}{subsection.1.6.3}}
\newlabel{Partie_numerique:modele-vibroacoustique-wave-six}{{1.6.3}{4}{Modèle vibroacoustique wave-six}{subsection.1.6.3}{}}
\@writefile{toc}{\contentsline {section}{\numberline {1.7}Corr\IeC {\'e}lations des mod\IeC {\`e}les}{5}{section.1.7}}
\newlabel{Correlations:correlations-des-modeles}{{1.7}{5}{Corrélations des modèles}{section.1.7}{}}
\newlabel{Correlations::doc}{{1.7}{5}{Corrélations des modèles}{section.1.7}{}}
\@writefile{toc}{\contentsline {subsection}{\numberline {1.7.1}Corr\IeC {\'e}lation pour VA-one}{5}{subsection.1.7.1}}
\newlabel{Correlations:correlation-pour-va-one}{{1.7.1}{5}{Corrélation pour VA-one}{subsection.1.7.1}{}}
\@writefile{toc}{\contentsline {subsection}{\numberline {1.7.2}Corr\IeC {\'e}lation pour wave-six}{5}{subsection.1.7.2}}
\newlabel{Correlations:correlation-pour-wave-six}{{1.7.2}{5}{Corrélation pour wave-six}{subsection.1.7.2}{}}
\@writefile{toc}{\contentsline {section}{\numberline {1.8}R\IeC {\'e}sultats et interpr\IeC {\'e}tation}{5}{section.1.8}}
\newlabel{Resultats::doc}{{1.8}{5}{Résultats et interprétation}{section.1.8}{}}
\newlabel{Resultats:resultats-et-interpretation}{{1.8}{5}{Résultats et interprétation}{section.1.8}{}}
\@writefile{toc}{\contentsline {section}{\numberline {1.9}Discussion}{5}{section.1.9}}
\newlabel{Discussion:discussion}{{1.9}{5}{Discussion}{section.1.9}{}}
\newlabel{Discussion::doc}{{1.9}{5}{Discussion}{section.1.9}{}}
\@writefile{toc}{\contentsline {section}{\numberline {1.10}Conclusion}{5}{section.1.10}}
\newlabel{Conclusion::doc}{{1.10}{5}{Conclusion}{section.1.10}{}}
\newlabel{Conclusion:conclusion}{{1.10}{5}{Conclusion}{section.1.10}{}}
\@writefile{toc}{\contentsline {section}{\numberline {1.11}Recommandations}{5}{section.1.11}}
\newlabel{Recommandations:recommandations}{{1.11}{5}{Recommandations}{section.1.11}{}}
\newlabel{Recommandations::doc}{{1.11}{5}{Recommandations}{section.1.11}{}}
